<svg width="29" height="36" viewBox="0 0 29 36" fill="none" xmlns="http://www.w3.org/2000/svg">
<path d="M4.15456 0.735901C3.22281 0.74206 2.33102 1.10527 1.67216 1.74695C1.0133 2.38862 0.640357 3.25714 0.634033 4.16458V31.594C0.640357 32.5015 1.0133 33.37 1.67216 34.0117C2.33102 34.6534 3.22281 35.0166 4.15456 35.0227H25.2777C26.2094 35.0166 27.1012 34.6534 27.7601 34.0117C28.4189 33.37 28.7919 32.5015 28.7982 31.594V11.0219L18.2366 0.735901H4.15456ZM4.15456 4.16458H16.4764V12.7363H25.2777V31.594H4.15456V4.16458Z" fill="white"/>
</svg>
