<svg width="18" height="20" viewBox="0 0 18 20" fill="none" xmlns="http://www.w3.org/2000/svg">
<path d="M7.57127 0.0120065C7.28494 0.0265033 6.99955 0.0558761 6.71627 0.100006C2.47827 0.760006 -0.335732 4.71601 0.0322679 8.94001C0.189268 10.75 0.893268 11.829 1.51427 12.725C2.29127 13.845 2.99327 14.764 2.99327 17.24V20H11.9933V17H13.9933C15.0863 17 15.9933 16.093 15.9933 15V12.021L17.2203 11.504C17.7803 11.268 18.0403 10.415 17.7183 9.90801L15.9403 7.12001V7.11801C15.4823 2.93301 11.8143 -0.199994 7.57127 0.0130064V0.0120065ZM6.99327 2.08001V7.27101C6.68968 7.44628 6.43749 7.69828 6.26198 8.00174C6.08647 8.30519 5.9938 8.64945 5.99327 9.00001C5.99327 9.53044 6.20398 10.0391 6.57905 10.4142C6.95413 10.7893 7.46284 11 7.99327 11C8.16817 11.0001 8.34232 10.9772 8.51127 10.932L9.99727 12.418C9.99519 12.4453 9.99385 12.4726 9.99327 12.5C9.99327 12.8978 10.1513 13.2794 10.4326 13.5607C10.7139 13.842 11.0954 14 11.4933 14C11.8911 14 12.2726 13.842 12.5539 13.5607C12.8352 13.2794 12.9933 12.8978 12.9933 12.5C12.9933 12.1022 12.8352 11.7207 12.5539 11.4393C12.2726 11.158 11.8911 11 11.4933 11C11.4659 11.0006 11.4386 11.0019 11.4113 11.004L9.92327 9.51601C9.96899 9.34779 9.99252 9.17432 9.99327 9.00001C9.99291 8.64928 9.90033 8.30482 9.72481 8.00117C9.54929 7.69752 9.29701 7.44537 8.99327 7.27001V2.08001C10.282 2.29065 11.4657 2.91933 12.3619 3.86916C13.258 4.81898 13.8169 6.0372 13.9523 7.33601L14.0023 7.79901L14.2523 8.19301L15.4543 10.078L13.9933 10.695V15H9.99327V18H4.99327V17.24C4.99327 14.328 3.93527 12.707 3.15927 11.586C2.53927 10.69 2.14727 10.186 2.02427 8.76801V8.76601C1.74327 5.52801 3.83827 2.58901 6.99327 2.08001Z" fill="#66DFF0"/>
</svg>
