<svg width="14" height="18" viewBox="0 0 14 18" fill="none" xmlns="http://www.w3.org/2000/svg">
<path d="M1.75 0C1.28684 0.00314371 0.843547 0.188528 0.516037 0.516037C0.188528 0.843547 0.00314371 1.28684 0 1.75V15.75C0.00314371 16.2132 0.188528 16.6565 0.516037 16.984C0.843547 17.3115 1.28684 17.4969 1.75 17.5H12.25C12.7132 17.4969 13.1565 17.3115 13.484 16.984C13.8115 16.6565 13.9969 16.2132 14 15.75V5.25L8.75 0H1.75ZM1.75 1.75H7.875V6.125H12.25V15.75H1.75V1.75Z" fill="#A5A5A5"/>
</svg>
