<svg width="16" height="16" viewBox="0 0 16 16" fill="none" xmlns="http://www.w3.org/2000/svg">
<path d="M7.98 6.26781e-08C6.40171 6.26781e-08 4.85886 0.468019 3.54655 1.34487C2.23425 2.22173 1.21143 3.46803 0.607445 4.92619C0.00345767 6.38434 -0.154573 7.98885 0.153337 9.53682C0.461247 11.0848 1.22127 12.5067 2.33729 13.6227C3.45331 14.7387 4.87522 15.4988 6.42318 15.8067C7.97115 16.1146 9.57566 15.9565 11.0338 15.3526C12.492 14.7486 13.7383 13.7258 14.6151 12.4135C15.492 11.1011 15.96 9.55829 15.96 7.98C15.9601 6.93201 15.7538 5.89427 15.3528 4.92603C14.9518 3.95779 14.364 3.07803 13.623 2.337C12.882 1.59596 12.0022 1.00816 11.034 0.607174C10.0657 0.206188 9.02799 -0.000131289 7.98 6.26781e-08ZM7.18 1.65V14.309C5.63761 14.1157 4.21887 13.3659 3.19031 12.2004C2.16174 11.0349 1.59414 9.53395 1.59414 7.9795C1.59414 6.42505 2.16174 4.92408 3.19031 3.75859C4.21887 2.59309 5.63761 1.84327 7.18 1.65ZM8.78 1.65C10.185 1.82748 11.491 2.46728 12.4924 3.46864C13.4937 4.47001 14.1335 5.77602 14.311 7.181H8.778L8.78 1.65ZM8.78 8.777H14.311C14.1335 10.182 13.4937 11.488 12.4924 12.4894C11.491 13.4907 10.185 14.1305 8.78 14.308V8.777Z" fill="#A5A5A5"/>
</svg>
